{
    "steps": [
        {
            "id": 1,
            "name": "Basic Charleston",
            "description": "Basic Charleston step",
            "imageUrl": "assets/charleston/basic-charleston.gif",
            "videoId": "1"
        },
        {
            "id": 2,
            "name": "Jump Charleston",
            "description": "Jump Charleston step",
            "imageUrl": "assets/charleston/flying-charleston.gif",
            "videoId": "2"
        },
        {
            "id": 3,
            "name": "Squat Charleston",
            "description": "Squat Charleston step",
            "imageUrl": "assets/charleston/flying-charleston.gif",
            "videoId": "3"
        },
        {
            "id": 4,
            "name": "Flying Charleston",
            "description": "Flying Charleston step",
            "imageUrl": "assets/charleston/flying-charleston.gif",
            "videoId": "4"
        }
    ]
}